{
    "KPlugin": {
        "Authors": [
            {
                "Name": "David Nolden",
                "Name[az]": "David Nolden",
                "Name[ca@valencia]": "David Nolden",
                "Name[ca]": "David Nolden",
                "Name[cs]": "David Nolden",
                "Name[de]": "David Nolden",
                "Name[el]": "David Nolden",
                "Name[en_GB]": "David Nolden",
                "Name[es]": "David Nolden",
                "Name[et]": "David Nolden",
                "Name[eu]": "David Nolden",
                "Name[fi]": "David Nolden",
                "Name[fr]": "David Nolden",
                "Name[gl]": "David Nolden",
                "Name[it]": "David Nolden",
                "Name[ko]": "David Nolden",
                "Name[nl]": "David Nolden",
                "Name[nn]": "David Nolden",
                "Name[pl]": "David Nolden",
                "Name[pt]": "David Nolden",
                "Name[pt_BR]": "David Nolden",
                "Name[ru]": "David Nolden",
                "Name[sk]": "David Nolden",
                "Name[sl]": "David Nolden",
                "Name[sv]": "David Nolden",
                "Name[tr]": "David Nolden",
                "Name[uk]": "David Nolden",
                "Name[x-test]": "xxDavid Noldenxx",
                "Name[zh_CN]": "David Nolden"
            }
        ],
        "Category": "Utilities",
        "Description": "A plugin for formatting C files using custom scripts",
        "Description[az]": "Xüsusi skriptdən istifadə edərək C fayllarının formatlanması üçün qoşma",
        "Description[bs]": "Dodatak za formatiranje C datoteka koristeći vlastite skripte",
        "Description[ca@valencia]": "Un connector per a donar format a fitxers C emprant scripts personalitzats",
        "Description[ca]": "Un connector per a donar format a fitxers C emprant scripts personalitzats",
        "Description[de]": "Ein Modul zum Formatieren von C-Dateien mit Hilfe von eigenen Skripten",
        "Description[el]": "Ένα πρόσθετο για τη διαμόρφωση C αρχείων με χρήση προσαρμοσμένων σεναρίων",
        "Description[en_GB]": "A plugin for formatting C files using custom scripts",
        "Description[es]": "Un complemento para formatear archivos de C usando scripts personalizados",
        "Description[et]": "Plugin C-failide vormindamiseks kohandatud skriptidega",
        "Description[eu]": "Script pertsonalizatuak erabiliz C fitxategiak formateatzen ahalbidetzen duen plugina",
        "Description[fi]": "Liitännäinen C-tiedostojen muotoiluun käyttäen mukautettuja skriptejä",
        "Description[fr]": "Un module pour mettre en forme des fichiers C d'après des scripts personnalisés",
        "Description[gl]": "Complemento para formatar os ficheiros en C empregando scripts personalizados.",
        "Description[it]": "Un'estensione per la formattazione di file in C che usa script personalizzati",
        "Description[ko]": "사용자 정의 스크립트로 C 파일의 형식을 재지정하는 플러그인",
        "Description[nl]": "Een plugin voor het formatteren van C-bestanden met eigen scripts",
        "Description[pl]": "Formatuje pliki C przy użyciu własnych skryptów",
        "Description[pt]": "Um 'plugin' para formatar ficheiros em C com programas personalizados",
        "Description[pt_BR]": "Um plugin para formatar arquivos em C usando scripts personalizados",
        "Description[sk]": "Modul pre formátovanie súborov C pomocou vlastných skriptov",
        "Description[sl]": "Vstavek za oblikovanje izvorne kode C s pomočjo skript po meri",
        "Description[sv]": "Ett insticksprogram för att formatera C-filer med egna skript",
        "Description[tr]": "C dosyalarını özel betikler kullanarak biçimlendirmek için bir eklenti",
        "Description[uk]": "Додаток для форматування файлів мовою C за допомогою нетипових скриптів",
        "Description[x-test]": "xxA plugin for formatting C files using custom scriptsxx",
        "Description[zh_CN]": "使用自定义脚本格式化 C 文件的插件",
        "Icon": "text-field",
        "Id": "kdevcustomscript",
        "License": "LGPL",
        "Name": "Custom Script Formatter Backend",
        "Name[az]": "Fərdi skript formatlama modulu",
        "Name[bs]": "Pozadinski program za formatiranje vlastitih skripti",
        "Name[ca@valencia]": "Dorsal de l'script formatador personalitzat",
        "Name[ca]": "Dorsal de l'script formatador personalitzat",
        "Name[de]": "Backend für einen Formatierer für eigene Skripte",
        "Name[el]": "Προσαρμοσμένο σύστημα υποστήριξης διαμορφωτή σεναρίων",
        "Name[en_GB]": "Custom Script Formatter Backend",
        "Name[es]": "Motor de formateo de scripts personalizados",
        "Name[et]": "Kohandatud skriptivormindaja taustaprogramm",
        "Name[eu]": "Script pertsonalizatuen formateatzailearen atzealdea",
        "Name[fi]": "Mukautetun skriptin muotoilijataustaohjelma",
        "Name[fr]": "Moteur de mise en forme de script personnalisé",
        "Name[gl]": "Infraestrutura de formatación de scripts personalizados",
        "Name[it]": "Backend formattatore script personalizzato",
        "Name[ko]": "사용자 정의 스크립트 형식 재지정 도구 백엔드",
        "Name[nl]": "Backend voor formatteerprogramma met eigen scripts",
        "Name[pl]": "Silnik formatowania przy użyciu własnych skryptów",
        "Name[pt]": "Infra-Estrutura de Formatação com Programas Personalizados",
        "Name[pt_BR]": "Infraestrutura de formatação de scripts personalizados",
        "Name[sk]": "Backend formátovača vlastného skriptu",
        "Name[sl]": "Zaledje oblikovalnika skript po meri",
        "Name[sv]": "Formateringsgränssnitt för eget skript",
        "Name[tr]": "Özel Betik Biçimlendirici Arka Ucu",
        "Name[uk]": "Сервер скриптів нетипового форматування",
        "Name[x-test]": "xxCustom Script Formatter Backendxx",
        "Name[zh_CN]": "自定义脚本格式化器后端"
    },
    "X-KDevelop-Category": "Global",
    "X-KDevelop-Interfaces": [
        "org.kdevelop.ISourceFormatter"
    ],
    "X-KDevelop-Mode": "NoGUI"
}
